project_3.sim/sim_1/impl/func/xsim/simulate.log
Vivado Simulator 2017.4
Time resolution is 1 ps
Iter |   Data   | Encoded Codeword | Received Codeword |  S1 S2 S3 S4 | Error Positions  | Corrected Word   | Success
----------------------------------------------------------------------------------------------------------------------------
 0   | 0100100 | 010010010010010 | 010010010011010 | 8 c a f | 000000000001000 | 010010010010010 | 1
 1   | 1011010 | 101101010111100 | 101101010111100 | 0 0 0 0 | 000000000000000 | 101101010111100 | 1
 2   | 1110001 | 111000101110111 | 111000101110111 | 0 0 0 0 | 000000000000000 | 111000101110111 | 1
 3   | 0001110 | 000111010001000 | 000011010001000 | e b 8 9 | 000100000000000 | 000111010001000 | 1
 4   | 1010101 | 101010111100101 | 101010111100101 | 0 0 0 0 | 000000000000000 | 101010111100101 | 1
 5   | 0110011 | 011001111101100 | 011001111101100 | 0 0 0 0 | 000000000000000 | 011001111101100 | 1
 6   | 1101100 | 110110001100111 | 110110011100111 | b 9 c d | 000000010000000 | 110110001100111 | 1
 7   | 1000111 | 100011110101100 | 000010110101100 | 3 5 0 2 | 000000000000000 | 000010110101100 | 0
 8   | 0011010 | 001101001010100 | 101101001110100 | f a e 8 | 000000000000000 | 101101001110100 | 0
 9   | 1111111 | 111111111111111 | 111111111101111 | 3 5 f 2 | 000000000010000 | 111111111111111 | 1
 10   | 0000001 | 000000111010001 | 000000111011000 | 9 d b e | 000000000000000 | 000000111011000 | 0
 11   | 0101010 | 010101000011010 | 110101001011010 | 5 2 7 4 | 000000000000000 | 110101001011010 | 0
 12   | 1010011 | 101001101110000 | 101001101010000 | 6 7 1 6 | 000000000100000 | 101001101110000 | 1
 13   | 0111110 | 011111011000110 | 011111011100100 | 4 3 9 5 | 000000000000000 | 011111011100100 | 0
 14   | 1001000 | 100100011110101 | 100100011110101 | 0 0 0 0 | 000000000000000 | 100100011110101 | 1
 15   | 0010111 | 001011101111110 | 001011101111110 | 0 0 0 0 | 000000000000000 | 001011101111110 | 1
 16   | 1100010 | 110001011101111 | 110001011100111 | 8 c a f | 000000000001000 | 110001011101111 | 1
 17   | 1110101 | 111010110010001 | 110010110010001 | f a c 8 | 001000000000000 | 111010110010001 | 1
 18   | 0001101 | 000110100101010 | 000110100101010 | 0 0 0 0 | 000000000000000 | 000110100101010 | 1
 19   | 0110000 | 011000001001110 | 011000001001110 | 0 0 0 0 | 000000000000000 | 011000001001110 | 1
$finish called at time : 300 ns : File "C:/Users/srish/project_3/project_3.srcs/sim_1/new/bch_tb.v" Line 69
